"VertexLitGeneric"
{
	"$basetexture" "noble/checkpoint/glassoverlay"
	"$bumpmap" "noble/checkpoint/skin_nm2"
//	"$alphatest" 1
	$translucent 1
	"$phong" 1
	"$phongtint" "[1 1 1]"
	"$phongexponent" 75
	"$phongboost" "10"
	"$phongfresnelranges" "[1 1 1]"
	"$envmap" "env_cubemap"
	"$envmaptint" "[1.3 1.3 1.0]"
	"$normalmapalphaenvmapmask" 1
	"$nodecal" "1"
	"$colorfix" "{255 255 255}"
	"Proxies"
	{
		"Equals"
		{
			srcVar1 $colorfix
			resultVar	$color
		}
	}
}