"VertexlitGeneric"
{
	"$basetexture" "models/LoneWolfiesCars/chev_tahoe/radio"
	"$bumpmap" "models/LoneWolfiesCars/shared/skin_nm"
	"$nocull" "1"
	"$blendtintbybasealpha" 1
	"$phong" "1" 
	"$phongboost" "0.02" 
	"$phongexponent" 2.1
	"$phongfresnelranges" "[1 1 1]" 
	"$nodecal" "1"
	"$colorfix" "{255 255 255}"
	"Proxies"
	{
		"Equals"
		{
			srcVar1 $colorfix
			resultVar	$color
		}
	}

}
