"VertexLitGeneric"
{
	"$baseTexture" "noble/trailermessageboard/trailer_message_board.vtf"
	$bumpmap "noble/trailermessageboard//skin.vtf"

//	$envmap "env_cubemap"
//	$envmaptint "[0.1 0.1 0.1]"

	"$phong"	"1"
	"$phongexponent"	"25"
	"$phongboost"	"1"
	"$phongfresnelranges"	"[0.1 0.1 5]"
	"$halflambert" "1"
//	"$rimlight" "1"
}
