"VertexlitGeneric"
{
	"$basetexture" "models/LoneWolfiesCars/props/shift2_helmetcam/fabric"
	"$bumpmap"    "models/LoneWolfiesCars/props/shift2_helmetcam/fabric_bump"
	"$nodecal" "1"
	"$phong" "1" 
	"$phongboost" "0.1"
	"$phongexponent" 10 
	"$phongfresnelranges" "[0.25 1.1 1]"
	"$rimlight" "1"
	"$rimlightexponent" "10"
	"$rimlightboost" ".1"
	"$rimmask" "1" 
	"$colorfix" "{255 255 255}"
	"Proxies"
	{
		"Equals"
		{
			srcVar1 $colorfix
			resultVar	$color
		}
	}
}
