"VertexlitGeneric"
{
	"$basetexture" "models/LoneWolfiesCars/props/shift2_helmetcam/fabric_2"
	"$bumpmap"    "models/LoneWolfiesCars/props/shift2_helmetcam/fabric_2_bump"
	"$nodecal" "1"
	"$phong" "1" 
	"$phongboost" "0.1"
	"$phongexponent" 8 
	"$phongfresnelranges" "[0.25 1.1 1]" 
	"$colorfix" "{255 255 255}"
	"Proxies"
	{
		"Equals"
		{
			srcVar1 $colorfix
			resultVar	$color
		}
	}
}
