"vertexlitgeneric"
{
	"$basetexture" "models/LoneWolfiesCars/ford_f350_ambu/skin2"
	"$bumpmap" "models/LoneWolfiesCars/shared/skin_nm"
	"$nodecal" "1"
	"$nocull" "1"
	"$envmap" "env_cubemap"
	"$envmaptint" "[0.1 0.1 0.1]"
	"$normalmapalphaenvmapmask" 1
	"$blendtintbybasealpha" 1
	"$halflambert" 1
	"$phong" "1" 
	"$phongboost" "1" 
	"$phongfresnelranges" "[.3 .5 1]" 
	"$phongexponent" 10
	"$rimlight" "1"
	"$rimlightexponent" "0"
	"$rimlightboost" "0.3"
	"$rimmask" "1"
}



