"VertexlitGeneric"
{
	"$basetexture" "models/LoneWolfiesCars/dodge_monaco/skin2"
	"$bumpmap" "models/LoneWolfiesCars/shared/skin_nm"
	
	//General
	"$nodecal" "1"
	"$nocull" 1
	"$blendtintbybasealpha" 1
	"$halflambert" 1
	"$normalmapalphaenvmapmask" 1

	//envmap params
	"$envmap" "env_cubemap"
	"$envmaptint" "[0.06 0.06 0.06]"

	//phong params
	"$phong" "1" 
	"$phongboost" "4" 
	"$phongfresnelranges" "[.3 .5 1]" 
	"$phongexponent" 130

	//rimlight params
	"$rimlight" "1"
	"$rimlightexponent" "10"
	"$rimlightboost" ".1"
	"$rimmask" "1"

}

